{
  "STARSYSTEM": {
    "name": "Jarnell",
    "sky": {
      "nebula": "Nebula-Jarnell.mag",
      "poly_stars": "stars.mag"
    },
    "stars": "500",
    "dust": "300",
    "ambient": {
      "x": 10,
      "y": 15,
      "z": 13
    },
    "star": {
      "name": "Valtala",
      "map": "Suns/StarG_map.pcx",
      "image": "Suns/G3.dds",
      "tscale": "6",
      "radius": "16e8",
      "mass": "2e30",
      "light": "1.4e11",
      "color": {
        "x": 255,
        "y": 250,
        "z": 230
      },
      "back": {
        "x": 11,
        "y": 18,
        "z": 15
      }
    },
    "planets": [
      {
        "name": "Adonis",
        "map": "Giants/GasGiant7_map.pcx",
        "image": "Giants/GasGiant7.dds",
        "radius": "18e6",
        "mass": "2.1e26",
        "orbit": "0.8e11",
        "tscale": "2",
        "tilt": "0.2",
        "ring": "Giants/Ring3.dds",
        "minrad": "1.5",
        "maxrad": "1.9",
        "rotation": "19.5",
        "region": {
          "name": "Adonis",
          "radius": "480e3",
          "grid": "20e3",
          "orbit": "1.15e8",
          "inclination": "0.45"
        },
        "moons": [
          {
            "name": "Synad",
            "map": "Moons/rock_map.pcx",
            "image": "Moons/rock_lo.pcx",
            "high_res": "Moons/rock_hi.pcx",
            "radius": "2.2e6",
            "mass": "1.9e22",
            "orbit": "1.44e8",
            "rotation": "30"
          },
          {
            "name": "Olan",
            "map": "Moons/lunar_map.pcx",
            "image": "Moons/lunar_lo.pcx",
            "high_res": "Moons/lunar_hi.dds",
            "radius": "3.2e6",
            "rotation": "19",
            "inclination": "0.0",
            "mass": "1.7e24",
            "orbit": "2.251e8"
          },
          {
            "name": "Amnia",
            "map": "Moons/lunar_map.pcx",
            "image": "Moons/lunar_lo.pcx",
            "high_res": "Moons/lunar_hi.dds",
            "radius": "1.2e6",
            "rotation": "19",
            "inclination": "0.0",
            "mass": "1.0e24",
            "orbit": "3.771e8"
          }
        ]
      },
      {
        "name": "Jarnell",
        "map": "Jarnell/jarnell_map.pcx",
        "image": "Jarnell/jarnell_lo.pcx",
        "high_res": "Jarnell/jarnell_hi.dds",
        "gloss": "Jarnell/jarnell_gloss.dds",
        "glow_high_res": "Jarnell/jarnell_lights.dds",
        "radius": "5.8e6",
        "mass": "4.98e24",
        "atmosphere": {
          "x": 100,
          "y": 180,
          "z": 220
        },
        "orbit": "1.4e11",
        "rotation": "27",
        "region": {
          "name": "Jarnell",
          "radius": "480e3",
          "grid": "20e3",
          "orbit": "19e6",
          "inclination": "0.5"
        },
        "moons": [
          {
            "name": "Lanora",
            "map": "Jarnell/lanos_map.pcx",
            "image": "Jarnell/lanos_lo.pcx",
            "high_res": "Jarnell/lanos_hi.pcx",
            "radius": "1e6",
            "mass": "8e22",
            "orbit": "42e6"
          }
        ]
      },
      {
        "name": "Caladan",
        "map": "Jarnell/caladan_map.pcx",
        "image": "Jarnell/caladan_lo.pcx",
        "high_res": "Jarnell/caladan_hi.pcx",
        "radius": "3.8e6",
        "mass": "2.98e24",
        "atmosphere": {
          "x": 50,
          "y": 80,
          "z": 70
        },
        "orbit": "2.01e11",
        "rotation": "32",
        "region": {
          "name": "Caladan",
          "radius": "480e3",
          "grid": "20e3",
          "orbit": "12e6",
          "inclination": "0.35"
        },
        "moons": [
          {
            "name": "Malta",
            "map": "Jarnell/lanos_map.pcx",
            "image": "Jarnell/lanos_lo.pcx",
            "high_res": "Jarnell/lanos_hi.pcx",
            "radius": "0.72e6",
            "mass": "6e22",
            "orbit": "32e6"
          }
        ]
      },
      {
        "name": "Dawn",
        "map": "Giants/GasGiant6_map.pcx",
        "image": "Giants/GasGiant6.dds",
        "radius": "28e6",
        "mass": "5.1e26",
        "orbit": "4.3e11",
        "tscale": "2",
        "tilt": "0.12",
        "rotation": "27.3",
        "region": {
          "name": "Dawn",
          "radius": "480e3",
          "grid": "20e3",
          "orbit": "1.0e8",
          "inclination": "0.25",
          "links": [
            "Pallas",
            "Tulkas",
            "Sparta",
            "Atlan"
          ]
        },
        "moons": [
          {
            "name": "Kash",
            "map": "Moons/rock_map.pcx",
            "image": "Moons/rock_lo.pcx",
            "high_res": "Moons/rock_hi.pcx",
            "radius": "3e6",
            "mass": "3e22",
            "orbit": "2.14e8",
            "rotation": "100"
          },
          {
            "name": "Kara",
            "map": "Moons/lunar_map.pcx",
            "image": "Moons/lunar_lo.pcx",
            "high_res": "Moons/lunar_hi.dds",
            "radius": "5.2e6",
            "rotation": "19",
            "inclination": "0.0",
            "mass": "6.0e24",
            "orbit": "4.551e8"
          },
          {
            "name": "Soma",
            "map": "Moons/ice_map.pcx",
            "image": "Moons/ice_lo.pcx",
            "high_res": "Moons/ice_hi.pcx",
            "radius": "6e6",
            "rotation": "27.4",
            "atmosphere": {
              "x": 180,
              "y": 180,
              "z": 255
            },
            "mass": "5.98e24",
            "orbit": "7.11e8"
          },
          {
            "name": "Tarina",
            "map": "Moons/ice_map.pcx",
            "image": "Moons/ice_lo.pcx",
            "high_res": "Moons/ice_hi.pcx",
            "radius": "4e6",
            "rotation": "172.1",
            "atmosphere": {
              "x": 180,
              "y": 180,
              "z": 255
            },
            "mass": "3.28e24",
            "orbit": "9.34e8"
          }
        ]
      }
    ]
  }
}