{
  "STARSYSTEM": {
    "name": "Ostara",
    "sky": {
      "nebula": "Nebula-Ostara.mag",
      "poly_stars": "stars.mag"
    },
    "stars": "500",
    "dust": "300",
    "ambient": {
      "x": 32,
      "y": 8,
      "z": 8
    },
    "star": {
      "name": "Ostara",
      "map": "Suns/StarM_map.pcx",
      "image": "Suns/M1.dds",
      "tscale": "6",
      "radius": "12e8",
      "mass": "1e30",
      "light": "5e10",
      "color": {
        "x": 255,
        "y": 170,
        "z": 160
      },
      "back": {
        "x": 130,
        "y": 90,
        "z": 50
      }
    },
    "planets": [
      {
        "name": "Aram",
        "map": "Ostara/ostara_map.pcx",
        "image": "Ostara/aram_lo.pcx",
        "high_res": "Ostara/aram_hi.dds",
        "radius": "6.4e6",
        "mass": "5.98e24",
        "atmosphere": {
          "x": 180,
          "y": 90,
          "z": 60
        },
        "orbit": "10.34e10",
        "rotation": "15",
        "region": {
          "name": "Aram",
          "radius": "480e3",
          "grid": "20e3",
          "orbit": "19e6",
          "inclination": "0.45",
          "links": [
            "Volova",
            "Kala",
            "Theramin"
          ]
        },
        "moons": [
          {
            "name": "Ur",
            "map": "Moons/lunar_map.pcx",
            "image": "Moons/lunar_lo.pcx",
            "high_res": "Moons/lunar_hi.dds",
            "radius": "1e6",
            "mass": "8e22",
            "orbit": "85e6"
          }
        ]
      }
    ]
  }
}