{
  "SHIP": {
    "name": "Imperial",
    "display_name": "Imperial",
    "class": "Cruiser",
    "description": "Marakan Hegemony guided missile cruisers such as the CA-5C44 IMPERIAL class are most often found leading small cruiser battle groups. These ships are devastating attack platforms, equally at home either support or leading space action groups. The Imperial class features a pair of Rostov high-speed missile turrets, which combined with a full battery of magnetic rail launchers, gives them excellent long range assault capability.",
    "hud_icon": "ImperialHud.pcx",
    "detail_0": "Musson_0opt.mag",
    "feature_0": "1000",
    "detail_1": "Musson_1opt.mag",
    "feature_1": "32",
    "detail_2": "Musson_2opt.mag",
    "feature_2": "16",
    "mass": "348.1e3",
    "agility": "2",
    "vlimit": "230",
    "roll_rate": "7",
    "integrity": "60e3",
    "scale": "4",
    "acs": "1.2",
    "trans_x": "450e3",
    "trans_y": "300e3",
    "trans_z": "450e3",
    "arcade_drag": "2.5e-2",
    "drag": "6e-7",
    "roll_drag": "1.2",
    "pitch_drag": "1.2",
    "yaw_drag": "1.2",
    "chase": {
      "x": 0,
      "y": -1800,
      "z": 170
    },
    "bridge": {
      "x": 0,
      "y": 640,
      "z": 100
    },
    "degrees": true,
    "power": [
      {
        "type": "Fusion",
        "design": "Fusion Reactor",
        "max_output": "40e3",
        "loc": {
          "x": 0,
          "y": -45,
          "z": -150
        },
        "size": "96",
        "hull_factor": "0.75",
        "explosion": "7"
      },
      {
        "type": "Auxilliary Reactor",
        "design": "Auxilliary Reactor",
        "max_output": "3500",
        "loc": {
          "x": 0,
          "y": 0,
          "z": -180
        },
        "hull_factor": "0.6"
      },
      {
        "type": "Battery",
        "design": "Battery",
        "max_output": "100"
      }
    ],
    "drive": {
      "type": "Yellow",
      "name": "Plasma Drive",
      "design": "Plasma Drive",
      "thrust": "30e3",
      "scale": "9",
      "port": [
        {
          "x": 137,
          "y": 30,
          "z": -340
        },
        {
          "x": -137,
          "y": 30,
          "z": -340
        }
      ],
      "loc": {
        "x": 0,
        "y": 10,
        "z": -200
      },
      "size": "48",
      "hull_factor": "0.3",
      "explosion": "7"
    },
    "thruster": {
      "design": "Thruster",
      "loc": {
        "x": 0,
        "y": 0,
        "z": 128
      },
      "size": "24",
      "hull_factor": "0.3"
    },
    "quantum": {
      "design": "Quantum Drive",
      "loc": {
        "x": 0,
        "y": 0,
        "z": -120
      },
      "size": "24",
      "hull_factor": "0.3"
    },
    "shield": {
      "type": "2",
      "design": "Grav Shield",
      "pcs": "100",
      "bolt_hit_sound": "shield_hit4.wav",
      "beam_hit_sound": "shield_hit5.wav",
      "loc": {
        "x": 0,
        "y": 0,
        "z": 0
      },
      "size": "48",
      "hull_factor": "0.5"
    },
    "weapon": [
      {
        "type": "Gamma Laser",
        "design": "Beam Weapon",
        "name": "Gamma Laser 1",
        "abrv": "Graser-1",
        "muzzle": {
          "x": -42,
          "y": -9,
          "z": 640
        },
        "loc": {
          "x": -42,
          "y": -9,
          "z": 620
        },
        "size": "32",
        "hull_factor": "0.2",
        "explosion": "7"
      },
      {
        "type": "Gamma Laser",
        "design": "Beam Weapon",
        "name": "Gamma Laser 2",
        "abrv": "Graser-2",
        "muzzle": {
          "x": 42,
          "y": -9,
          "z": 640
        },
        "loc": {
          "x": 42,
          "y": -9,
          "z": 620
        },
        "size": "32",
        "hull_factor": "0.2",
        "explosion": "7"
      },
      {
        "type": "Rostov",
        "design": "Missile Weapon",
        "name": "Missile 1",
        "abrv": "MISL-1",
        "muzzle": {
          "x": 0,
          "y": 0,
          "z": 90
        },
        "loc": {
          "x": -183,
          "y": 29,
          "z": -159
        },
        "size": "64",
        "hull_factor": "0.8",
        "explosion": "6"
      },
      {
        "type": "Rostov-Starboard",
        "design": "Missile Weapon",
        "name": "Missile 2",
        "abrv": "MISL-2",
        "muzzle": {
          "x": 0,
          "y": 0,
          "z": 90
        },
        "loc": {
          "x": 183,
          "y": 29,
          "z": -159
        },
        "size": "64",
        "hull_factor": "0.8",
        "explosion": "6"
      },
      {
        "type": "Mag-18",
        "design": "Bolt Weapon",
        "name": "18INMAG",
        "abrv": "MG12",
        "azimuth": "0.0",
        "elevation": "0.0",
        "aim_az_max": "130.0",
        "aim_az_min": "-130.0",
        "aim_el_max": "80.0",
        "aim_el_min": "-1.0",
        "loc": {
          "x": 0,
          "y": 68,
          "z": 153
        },
        "size": "64",
        "hull_factor": "0.8",
        "explosion": "6"
      },
      {
        "type": "Mag-18",
        "design": "Bolt Weapon",
        "name": "18INMAG",
        "abrv": "MG12",
        "azimuth": "180.0",
        "elevation": "-180.0",
        "aim_az_max": "130.0",
        "aim_az_min": "-5.0",
        "aim_el_max": "80.0",
        "aim_el_min": "-1.0",
        "loc": {
          "x": -91,
          "y": -47,
          "z": 313
        },
        "size": "64",
        "hull_factor": "0.8",
        "explosion": "6"
      },
      {
        "type": "Mag-18",
        "design": "Bolt Weapon",
        "name": "18INMAG",
        "abrv": "MG12",
        "azimuth": "180.0",
        "elevation": "180.0",
        "aim_az_max": "5.0",
        "aim_az_min": "-135.0",
        "aim_el_max": "80.0",
        "aim_el_min": "-1.0",
        "loc": {
          "x": 91,
          "y": -47,
          "z": 313
        },
        "size": "64",
        "hull_factor": "0.8",
        "explosion": "6"
      },
      {
        "type": "Mag-18",
        "design": "Bolt Weapon",
        "name": "18INMAG",
        "abrv": "MG12",
        "azimuth": "180.0",
        "elevation": "0.0",
        "aim_az_max": "130.0",
        "aim_az_min": "-130.0",
        "aim_el_max": "80.0",
        "aim_el_min": "-1.0",
        "loc": {
          "x": 0,
          "y": 92,
          "z": -228
        },
        "size": "64",
        "hull_factor": "0.8",
        "explosion": "6"
      },
      {
        "type": "Rail-12",
        "design": "Bolt Weapon",
        "name": "RAIL12",
        "azimuth": "0.0",
        "elevation": "0.0",
        "aim_az_max": "1.0",
        "aim_az_min": "-180.0",
        "aim_el_max": "85.0",
        "aim_el_min": "-1.0",
        "loc": {
          "x": -139,
          "y": 72,
          "z": -172
        },
        "size": "64",
        "hull_factor": "0.8",
        "explosion": "6"
      },
      {
        "type": "Rail-12",
        "design": "Bolt Weapon",
        "name": "RAIL12",
        "azimuth": "0.0",
        "elevation": "0.0",
        "aim_az_max": "1.0",
        "aim_az_min": "-180.0",
        "aim_el_max": "85.0",
        "aim_el_min": "-1.0",
        "loc": {
          "x": 139,
          "y": 72,
          "z": -172
        },
        "size": "64",
        "hull_factor": "0.8",
        "explosion": "6"
      },
      {
        "type": "Rail-12",
        "design": "Bolt Weapon",
        "name": "RAIL12",
        "azimuth": "0.0",
        "elevation": "0.0",
        "aim_az_max": "1.0",
        "aim_az_min": "-180.0",
        "aim_el_max": "85.0",
        "aim_el_min": "-1.0",
        "loc": {
          "x": 139,
          "y": -12,
          "z": -172
        },
        "size": "64",
        "hull_factor": "0.8",
        "explosion": "6"
      },
      {
        "type": "Rail-12",
        "design": "Bolt Weapon",
        "name": "RAIL12",
        "azimuth": "0.0",
        "elevation": "0.0",
        "aim_az_max": "1.0",
        "aim_az_min": "-180.0",
        "aim_el_max": "85.0",
        "aim_el_min": "-1.0",
        "loc": {
          "x": -139,
          "y": -12,
          "z": -172
        },
        "size": "64",
        "hull_factor": "0.8",
        "explosion": "6"
      }
    ],
    "probe": {
      "type": "Sensor Drone",
      "design": "Probe",
      "abrv": "Probe",
      "muzzle": {
        "x": 0,
        "y": -80,
        "z": 0
      },
      "loc": {
        "x": 0,
        "y": -80,
        "z": 0
      },
      "size": "16",
      "hull_factor": "0.2"
    },
    "sensor": {
      "design": "Sensor",
      "pcs": "20",
      "active_efficiency": "1e6",
      "passive_efficiency": "10e3",
      "range": [
        "25e3",
        "50e3",
        "75e3",
        "100e3"
      ],
      "loc": {
        "x": 0,
        "y": -16,
        "z": 380
      },
      "size": "16",
      "hull_factor": "0.1"
    },
    "computer": [
      {
        "name": "Avionics Package",
        "abrv": "HUD",
        "type": "1",
        "design": "Computer",
        "loc": {
          "x": 20,
          "y": 16,
          "z": 80
        },
        "size": "16",
        "hull_factor": "0.5"
      },
      {
        "name": "Flight Computer",
        "abrv": "Flight",
        "type": "2",
        "design": "Computer",
        "loc": {
          "x": -20,
          "y": -16,
          "z": 80
        },
        "size": "16",
        "hull_factor": "0.2"
      }
    ],
    "nav": {
      "loc": {
        "x": 0,
        "y": 16,
        "z": 60
      },
      "design": "Computer",
      "size": "16",
      "hull_factor": "0.1"
    },
    "map": {
      "sprite": [
        "ImperialMap0.pcx",
        "ImperialMap1.pcx",
        "ImperialMap2.pcx",
        "ImperialMap3.pcx",
        "ImperialMap4.pcx",
        "ImperialMap5.pcx",
        "ImperialMap6.pcx",
        "ImperialMap7.pcx"
      ]
    },
    "death_spiral": {
      "time": "5",
      "explosion": [
        {
          "type": 10,
          "time": 2.0,
          "loc": {
            "x": -50,
            "y": 10,
            "z": 0
          }
        },
        {
          "type": 10,
          "time": 0.7,
          "loc": {
            "x": 60,
            "y": 20,
            "z": 260
          }
        },
        {
          "type": 10,
          "time": 0.5,
          "loc": {
            "x": -20,
            "y": -18,
            "z": -240
          }
        },
        {
          "type": 10,
          "time": 0.3,
          "loc": {
            "x": 20,
            "y": 20,
            "z": -120
          }
        },
        {
          "type": 13,
          "final": true
        },
        {
          "type": 12,
          "final": true
        }
      ],
      "debris": [
        {
          "model": "MussonDebris1.mag",
          "loc": {
            "x": 0,
            "y": 0,
            "z": 400
          },
          "mass": 98000.0,
          "count": 1,
          "life": "380",
          "fire": [
            {
              "x": 60,
              "y": 0,
              "z": -200
            },
            {
              "x": 100,
              "y": 20,
              "z": 80
            }
          ]
        },
        {
          "model": "MussonDebris2.mag",
          "loc": {
            "x": 140,
            "y": -120,
            "z": 0
          },
          "mass": 38000.0,
          "count": 1,
          "life": 360
        },
        {
          "model": "Debris0A.mag",
          "loc": {
            "x": 0,
            "y": 0,
            "z": -50
          },
          "mass": 95,
          "count": 20,
          "life": 20
        },
        {
          "model": "Debris0B.mag",
          "loc": {
            "x": 0,
            "y": 0,
            "z": -50
          },
          "mass": 44,
          "count": 15,
          "life": 35
        },
        {
          "model": "Debris0C.mag",
          "loc": {
            "x": 0,
            "y": 0,
            "z": 0
          },
          "mass": 23,
          "count": 10,
          "life": 30
        }
      ]
    }
  }
}