{
  "SHIP": {
    "name": "Cool00",
    "class": "Building",
    "display_name": "Cooling Tower",
    "hud_icon": "hud_cool00.pcx",
    "detail_0": "Cool00-0.mag",
    "feature_0": "1000",
    "detail_1": "Cool00-6.mag",
    "feature_1": "6",
    "mass": "5e3",
    "integrity": "5e3",
    "scale": "3",
    "acs": "50e3",
    "chase": {
      "x": 0,
      "y": -1200,
      "z": 250
    },
    "bridge": {
      "x": 0,
      "y": 0,
      "z": 32
    },
    "death_spiral": {
      "time": "0.0",
      "final_type": [
        10,
        "6",
        8
      ],
      "final_loc": [
        {
          "x": 0,
          "y": 32,
          "z": 0
        },
        {
          "x": 0,
          "y": 4,
          "z": 0
        },
        {
          "x": 0,
          "y": 0,
          "z": 0
        }
      ]
    }
  }
}