{
  "SHIP": {
    "name": "Fact03",
    "class": "Building",
    "display_name": "Factory",
    "hud_icon": "hud_fact03.pcx",
    "detail_0": "Fact03-0.mag",
    "feature_0": "1000",
    "detail_1": "Fact03-6.mag",
    "feature_1": "6",
    "mass": "5e3",
    "integrity": "10e3",
    "scale": "2",
    "acs": "50e3",
    "chase": {
      "x": 0,
      "y": -1200,
      "z": 250
    },
    "bridge": {
      "x": 0,
      "y": 0,
      "z": 32
    },
    "death_spiral": {
      "time": "0.0",
      "final_type": [
        10,
        12,
        8
      ],
      "final_loc": [
        {
          "x": 0,
          "y": 32,
          "z": 0
        },
        {
          "x": 0,
          "y": 64,
          "z": 0
        },
        {
          "x": 0,
          "y": 0,
          "z": 0
        }
      ]
    }
  }
}