{
  "SHIP": {
    "name": "Senate",
    "class": "Building",
    "display_name": "Senate",
    "model": "senate2-6.mag",
    "mass": "550e4",
    "integrity": "500e4",
    "scale": "3",
    "acs": "0",
    "pcs": "0",
    "chase": {
      "x": 0,
      "y": -1200,
      "z": 250
    },
    "bridge": {
      "x": 0,
      "y": 0,
      "z": 32
    }
  }
}