{
  "SHIP": {
    "name": "Marauder",
    "display_name": "Marauder",
    "class": "Frigate",
    "description": "The MARAUDER is a small frigate-class vessel commonly used by the Brotherhood of Iron criminal organization as a commerce raider.  The Marauder ships are no match for most military warships, but they make up for their limitations with enhanced stealth capabilities.  Starship captains usually find the Marauder to be a fiendishly difficult type of ship to lock onto.",
    "hud_icon": "MarauderHud.pcx",
    "detail_0": "Marauder_2opt.mag",
    "feature_0": "32",
    "detail_1": "Marauder_3opt.mag",
    "feature_1": "16",
    "mass": "7.9e3",
    "agility": "5",
    "vlimit": "280",
    "roll_rate": "60",
    "integrity": "22e3",
    "scale": "2.5",
    "acs": "1",
    "degrees": true,
    "detet": "30e3",
    "trans_x": "75e3",
    "trans_y": "25e3",
    "trans_z": "75e3",
    "arcade_drag": "2e-2",
    "drag": "1e-6",
    "roll_drag": "1.2",
    "pitch_drag": "1.2",
    "yaw_drag": "1.2",
    "chase": {
      "x": 0,
      "y": -1000.0,
      "z": 200
    },
    "bridge": {
      "x": 0,
      "y": 216,
      "z": 34
    },
    "power": [
      {
        "type": "Fusion",
        "design": "Fusion Reactor",
        "max_output": "3e3",
        "loc": {
          "x": 0,
          "y": 0,
          "z": -60
        },
        "size": "48",
        "hull_factor": "0.6",
        "explosion": "7"
      },
      {
        "type": "Battery",
        "design": "Battery",
        "max_output": "250"
      }
    ],
    "drive": {
      "type": "Red",
      "name": "Plasma Drive",
      "design": "Plasma Drive",
      "thrust": "800",
      "scale": "4",
      "port": [
        {
          "x": -44,
          "y": 12,
          "z": -252
        },
        {
          "x": 45,
          "y": 12,
          "z": -252
        }
      ],
      "loc": {
        "x": 0,
        "y": 0,
        "z": -200
      },
      "size": "32",
      "hull_factor": "0.5",
      "explosion": "7"
    },
    "thruster": {
      "design": "Thruster",
      "loc": {
        "x": 0,
        "y": 0,
        "z": 64
      },
      "size": "24",
      "hull_factor": "0.3"
    },
    "quantum": {
      "design": "Quantum Drive",
      "loc": {
        "x": 0,
        "y": 0,
        "z": -120
      },
      "size": "24",
      "hull_factor": "0.3"
    },
    "shield": {
      "type": "2",
      "design": "Grav Shield",
      "factor": "0.05",
      "consumption": "2000",
      "pcs": "100",
      "loc": {
        "x": 0,
        "y": 20,
        "z": -80
      },
      "size": "16",
      "hull_factor": "0.5",
      "bolt_hit_sound": "shield_hit4.wav",
      "beam_hit_sound": "shield_hit5.wav"
    },
    "weapon": [
      {
        "type": "Plasma Cannon",
        "design": "Plasma Weapon",
        "name": "Port Cannon",
        "abrv": "Plasma 2",
        "muzzle": {
          "x": -260,
          "y": -32,
          "z": 194
        },
        "azimuth": "0",
        "loc": {
          "x": -260,
          "y": -32,
          "z": 60
        },
        "size": "24",
        "hull_factor": "0.3"
      },
      {
        "type": "Plasma Cannon",
        "design": "Plasma Weapon",
        "name": "Starboard Cannon",
        "abrv": "Plasma 3",
        "muzzle": {
          "x": 260,
          "y": -32,
          "z": 194
        },
        "azimuth": "0",
        "loc": {
          "x": 260,
          "y": -32,
          "z": 60
        },
        "size": "24",
        "hull_factor": "0.3"
      },
      {
        "type": "Light-PDB",
        "design": "Plasma Weapon",
        "name": "PDB-1",
        "azimuth": "60",
        "aim_az_max": "90",
        "aim_az_min": "-60",
        "aim_az_rest": "-60",
        "muzzle": {
          "x": 0,
          "y": 0,
          "z": 71
        },
        "loc": {
          "x": -110,
          "y": 26,
          "z": 20
        },
        "size": "32",
        "hull_factor": "0.3"
      },
      {
        "type": "Light-PDB",
        "design": "Plasma Weapon",
        "name": "PDB-2",
        "azimuth": "-60",
        "aim_az_max": "-90",
        "aim_az_min": "60",
        "aim_az_rest": "60",
        "muzzle": {
          "x": 0,
          "y": 0,
          "z": 71
        },
        "loc": {
          "x": 110,
          "y": 26,
          "z": 20
        },
        "size": "32",
        "hull_factor": "0.3"
      }
    ],
    "probe": {
      "type": "Sensor Drone",
      "design": "Probe",
      "abrv": "Probe",
      "muzzle": {
        "x": 0,
        "y": -10,
        "z": 64
      },
      "loc": {
        "x": 0,
        "y": -10,
        "z": 50
      },
      "size": "16",
      "hull_factor": "0.2"
    },
    "sensor": {
      "design": "Sensor",
      "pcs": "20",
      "active_efficiency": "1e6",
      "passive_efficiency": "10e3",
      "range": [
        "25e3",
        "50e3",
        "75e3",
        "100e3"
      ],
      "loc": {
        "x": 0,
        "y": 0,
        "z": 180
      },
      "size": "16",
      "hull_factor": "0.1"
    },
    "computer": [
      {
        "name": "Avionics Package",
        "abrv": "HUD",
        "type": "1",
        "design": "Computer",
        "loc": {
          "x": 20,
          "y": 16,
          "z": 80
        },
        "size": "16",
        "hull_factor": "0.5"
      },
      {
        "name": "Flight Computer",
        "abrv": "Flight",
        "type": "2",
        "design": "Computer",
        "loc": {
          "x": -20,
          "y": -16,
          "z": 80
        },
        "size": "16",
        "hull_factor": "0.2"
      }
    ],
    "nav": {
      "loc": {
        "x": 0,
        "y": 16,
        "z": 60
      },
      "design": "Computer",
      "size": "16",
      "hull_factor": "0.1"
    },
    "death_spiral": {
      "time": "5",
      "explosion_type": [
        10,
        10,
        10,
        10
      ],
      "explosion_time": [
        "2",
        "1",
        "0.5",
        "0"
      ],
      "explosion_loc": [
        {
          "x": -50,
          "y": 50,
          "z": 0
        },
        {
          "x": 60,
          "y": 40,
          "z": 190
        },
        {
          "x": 0,
          "y": -48,
          "z": -180
        },
        {
          "x": 20,
          "y": 80,
          "z": -190
        }
      ],
      "final_type": [
        11,
        12
      ],
      "final_loc": [
        {
          "x": 0,
          "y": 0,
          "z": 0
        },
        {
          "x": 0,
          "y": 0,
          "z": 0
        }
      ],
      "debris": [
        "Debris5.mag",
        "Debris6.mag",
        "Debris7.mag"
      ],
      "debris_loc": [
        {
          "x": 0,
          "y": 0,
          "z": -50
        },
        {
          "x": 0,
          "y": 0,
          "z": 60
        },
        {
          "x": 0,
          "y": 0,
          "z": 0
        }
      ],
      "debris_mass": [
        "5",
        "4",
        "1"
      ],
      "debris_count": [
        "15",
        "15",
        "10"
      ],
      "debris_life": [
        "15",
        "15",
        "15"
      ]
    },
    "map": {
      "sprite": [
        "m_map0.pcx",
        "m_map1.pcx",
        "m_map2.pcx",
        "m_map3.pcx",
        "m_map4.pcx",
        "m_map5.pcx",
        "m_map6.pcx",
        "m_map7.pcx"
      ]
    }
  }
}