CAUTION_left = 0 0 256 256
CAUTION_right = 256 0 256 256
CHASE_B = 96 896 16 16
CHASE_L = 64 928 16 16
CHASE_R = 0 992 16 16
CHASE_T = 32 960 16 16
Cross = 0 960 32 32
Cross1 = 0 896 64 64
Cross2 = 128 768 64 64
Cross3 = 128 832 64 64
Cross4 = 192 768 64 64
fpm = 48 960 16 16
hpm = 32 976 16 16
hud_icon = 0 768 128 128
HUDleft = 0 256 256 256
HUDleft1 = 256 256 256 256
HUDleftA = 512 0 256 256
HUDright = 512 256 256 256
HUDright1 = 768 0 256 256
HUDrightA = 768 256 256 256
INSTR_left = 0 512 256 256
INSTR_right = 256 512 256 256
Ladder1 = 512 512 256 256
Ladder2 = 768 512 256 256
lead = 64 896 32 32
