﻿{
  "FORM": {
    "form": {
      "back_color": [ 0, 0, 0 ],
      "fore_color": [ 255, 255, 255 ],
      "texture": "Frame1",
      "margins": [ 1, 1, 64, 8 ],
      "layout": {
        "x_mins": [ 10, 80, 80, 10, 100, 100, 100, 10 ],
        "x_weights": [ 0, 1, 1, 0, 3, 3, 3, 0 ],
        "y_mins": [ 28, 25, 20, 52, 60, 45 ],
        "y_weights": [ 0, 0, 0, 0, 1, 0 ]
      },
      "defctrls": [
        {
          "name": "paramsdef1",
          "ctrl": {
            "sticky": true,
            "standard_image": "Tab17_0",
            "activated_image": "Tab17_1",
            "transition_image": "Tab17_2",
            "align": "left",
            "font": "Limerick12",
            "fixed_width": 0,
            "fixed_height": 19,
            "cell_insets": [ 0, 5, 10, 0 ],
            "margins": [ 10, 10, 0, 0 ],
            "fore_color": [ 0, 0, 0 ],
            "transparent": false,
            "style": 0,
            "pid": 300
          }
        },
        {
          "name": "paramsdef2",
          "ctrl": {
            "fore_color": [ 255, 255, 255 ],
            "back_color": [ 0, 0, 0 ],
            "bevel_width": 0,
            "fixed_height": 0,
            "align": "left",
            "transparent": true,
            "style": 64,
            "cell_insets": [ 0, 0, 0, 0 ]
          }
        },
        {
          "name": "paramsdef3",
          "ctrl": {
            "standard_image": "",
            "activated_image": "",
            "transition_image": "",
            "font": "Verdana",
            "back_color": [ 69, 69, 67 ],
            "fore_color": [ 255, 255, 255 ],
            "style": 2,
            "scroll_bar": 2,
            "texture": "Panel",
            "margins": [ 12, 12, 12, 0 ],
            "transparent": false
          }
        },
        {
          "name": "paramsdef4",
          "ctrl": {
            "align": "left",
            "font": "Limerick12",
            "fore_color": [ 0, 0, 0 ],
            "standard_image": "Button17_0",
            "activated_image": "Button17_1",
            "transition_image": "Button17_2",
            "texture": "",
            "transparent": false,
            "bevel_width": 6,
            "margins": [ 3, 18, 0, 0 ],
            "cell_insets": [ 0, 10, 0, 0 ],
            "fixed_height": 19,
            "pid": 0
          }
        }
      ],
      "ctrls": [
        {
          "id": 9991,
          "type": "background",
          "texture": "Frame3a",
          "cells": [ 1, 3, 4, 3 ],
          "cell_insets": [ 0, 0, 0, 10 ],
          "margins": [ 48, 80, 48, 48 ],
          "hide_partial": false
        },
        {
          "id": 9992,
          "type": "background",
          "texture": "Frame3b",
          "cells": [ 5, 3, 2, 3 ],
          "cell_insets": [ 0, 0, 0, 10 ],
          "margins": [ 80, 48, 48, 48 ],
          "hide_partial": false
        },
        {
          "id": 10,
          "type": "label",
          "text": "Dynamic Campaigns",
          "align": "left",
          "font": "Limerick18",
          "fore_color": [ 255, 255, 255 ],
          "transparent": true,
          "cells": [ 1, 1, 4, 1 ],
          "cell_insets": [ 0, 0, 0, 0 ],
          "hide_partial": false
        },
        {
          "id": 300,
          "type": "panel",
          "transparent": true,
          "cells": [ 1, 3, 6, 3 ],
          "cell_insets": [ 10, 10, 14, 54 ],
          "hide_partial": false,
          "layout": {
            "x_mins": [ 100, 100, 70, 20, 50, 50, 50 ],
            "x_weights": [ 0, 0, 0, 0, 1, 1, 1 ],
            "y_mins": [ 40, 25, 100, 30 ],
            "y_weights": [ 0, 0, 1, 0 ]
          }
        },
        {
          "params_name": "paramsdef1",
          "id": 100,
          "type": "button",
          "cells": [ 0, 0, 1, 1 ],
          "text": "New"
        },
        {
          "params_name": "paramsdef1",
          "id": 101,
          "type": "button",
          "cells": [ 1, 0, 1, 1 ],
          "text": "Saved"
        },
        {
          "params_name": "paramsdef1",
          "id": 102,
          "type": "button",
          "cells": [ 0, 3, 1, 1 ],
          "text": "Delete"
        },
        {
          "params_name": "paramsdef2",
          "id": 901,
          "type": "label",
          "cells": [ 0, 1, 3, 1 ],
          "text": "Campaign"
        },
        {
          "params_name": "paramsdef2",
          "id": 902,
          "type": "label",
          "cells": [ 4, 1, 3, 1 ],
          "text": "Description"
        },
        {
          "params_name": "paramsdef3",
          "id": 201,
          "type": "list",
          "cells": [ 0, 2, 3, 1 ],
          "line_height": 100,
          "columns": [
            {
              "title": "Campaigns",
              "width": 252,
              "align": "left",
              "sort": 0
            }
          ]
        },
        {
          "params_name": "paramsdef3",
          "id": 200,
          "type": "text",
          "cells": [ 4, 2, 3, 1 ],
          "font": "Verdana"
        },
        {
          "params_name": "paramsdef4",
          "id": 1,
          "type": "button",
          "text": "Accept",
          "cells": [ 5, 5, 1, 1 ]
        },
        {
          "params_name": "paramsdef4",
          "id": 2,
          "type": "button",
          "text": "Cancel",
          "cells": [ 6, 5, 1, 1 ]
        }
      ]
    }
  }
}