{
    "FORM": {
        "form": {
            "rect": [ 0, 0, 400, 380 ],
            "back_color": [ 0, 0, 0 ],
            "fore_color": [ 255, 255, 255 ],
            "font": "Limerick12",

            "texture": "Message",
            "margins": [ 50, 40, 48, 40 ],

            "layout": {
                "x_mins": [ 20, 50, 100, 100, 20 ],
                "x_weights": [ 0, 0, 1, 1, 0 ],

                "y_mins": [ 44, 30, 10, 25, 80, 35 ],
                "y_weights": [ 0, 0, 0, 0, 1, 0 ]
            },
            "defctrls": [
                {
                    "name": "paramsdef1",
                    "ctrl": {
                        "fore_color": [ 255, 255, 255 ],
                        "font": "Limerick12",
                        "transparent": true
                    }
                },
                {
                    "name": "paramsdef2",
                    "ctrl": {
                        "font": "Verdana",
                        "transparent": false,
                        "style": 0
                    }
                },
                {
                    "name": "paramsdef3",
                    "ctrl": {
                        "back_color": [ 41, 41, 41 ],
                        "style": "2",
                        "scroll_bar": 0
                    }
                },
                {
                    "name": "paramsdef4",
                    "ctrl": {
                        "align": "left",
                        "font": "Limerick12",
                        "fore_color": [ 0, 0, 0 ],
                        "standard_image": "Button17_0",
                        "activated_image": "Button17_1",
                        "transition_image": "Button17_2",
                        "bevel_width": 6,
                        "margins": [ 3, 18, 0, 0 ],
                        "cell_insets": [ 10, 0, 0, 16 ],
                        "transparent": false,
                        "fixed_height": 19
                    }
                }

            ],

            "ctrls": [
                {
                    "params_name": "paramsdef1",
                    "id": 100,
                    "type": "label",
                    "align": "center",
                    "cells": [ 1, 1, 3, 1 ],
                    "font": "Limerick18",
                    "text": "Save Game to File"
                },

                {
                    "params_name": "paramsdef2",
                    "id": 110,
                    "type": "label",
                    "cells": [ 1, 3, 1, 1 ],
                    "text": "Name: ",
                    "transparent": true
                },

                {
                    "params_name": "paramsdef2",
                    "id": 111,
                    "type": "label",
                    "cells": [ 1, 4, 1, 1 ],
                    "text": "Files: ",
                    "transparent": true
                },

                {
                    "params_name": "paramsdef3",
                    "id": 200,
                    "type": "edit",
                    "cells": [ 2, 3, 2, 1 ],
                    "cell_insets": [ 10, 0, 0, 0 ],
                    "fixed_height": 19
                },

                {
                    "params_name": "paramsdef3",
                    "id": 201,
                    "type": "list",
                    "cells": [ 2, 4, 2, 1 ],
                    "cell_insets": [ 10, 0, 0, 20 ],
                    "scroll_bar": 2,

                    "columns": [
                        {
                            "title": "Files",
                            "width": 200,
                            "align": "left",
                            "sort": 0
                        }
                    ]
                },
                {
                    "params_name": "paramsdef4",
                    "id": 1,
                    "type": "button",
                    "cells": [ 2, 5, 1, 1 ],
                    "text": "Save"
                },

                {
                    "params_name": "paramsdef4",
                    "id": 2,
                    "type": "button",
                    "cells": [ 3, 5, 1, 1 ],
                    "text": "Cancel"
                }
            ]
        }
    }
}