﻿{
  "MISSION": {
    "name": "Flight School",
    "type": "Training",
    "system": "Janus",
    "region": "Janek Station",
    "objective": [
      "Training - ",
      "Practice airborne fighter operations."
    ],
    "sitrep": [
      "The Third Fleet is participating in wargame ",
      "exercises in the Janus system. ",
      "Your squadron, the Avengers, are on temporary ",
      "detached duty to Janek Station.",
      "As part of the exercise, you have ",
      "been tasked with practicing take offs and landings, ",
      "flying patrol patterns ",
      "and destroying target drones in your sector."
    ],
    "start": "01/13:23:00",
    "stardate": 1084144000,
    "degrees": true,
    "elements": [
      {
        "name": "Janek Station",
        "design": "Airbase1",
        "loc": {
          "x": 25000,
          "y": 0,
          "z": 0
        },
        "head": -90,
        "iff": 1,
        "command_ai": 0
      },
      {
        "name": "Avengers",
        "design": "Falcon",
        "count": 20,
        "maint_count": 5,
        "dead_count": 5,
        "carrier": "Janek Station",
        "iff": 1,
        "loadout": {
          "ship": -1,
          "name": "ACM Medium Range"
        }
      },
      {
        "name": "Alpha",
        "design": "Falcon",
        "squadron": "Avengers",
        "loc": {
          "x": 15000,
          "y": -5000,
          "z": 5000
        },
        "mission": "sweep",
        "objective": {
          "cmd": "intercept",
          "tgt": "Sierra"
        },
        "player": 1,
        "head": -90,
        "alert": true,
        "count": 2,
        "iff": 1,
        "loadout": {
          "ship": -1,
          "name": "ACM Medium Range"
        },
        "navpts": [
          {
            "cmd": "vector",
            "loc": {
              "x": -15000,
              "y": -5000,
              "z": 7000
            },
            "speed": 350
          },
          {
            "cmd": "vector",
            "loc": {
              "x": -15000,
              "y": -20000,
              "z": 8000
            },
            "speed": 500
          },
          {
            "cmd": "sweep",
            "loc": {
              "x": 0,
              "y": -10000,
              "z": 10000
            },
            "speed": 500
          },
          {
            "cmd": "sweep",
            "loc": {
              "x": 10000,
              "y": -10000,
              "z": 10000
            },
            "speed": 500
          },
          {
            "cmd": "rtb",
            "loc": {
              "x": 60000,
              "y": 0,
              "z": 10000
            },
            "speed": 400
          }
        ]
      },
      {
        "name": "Sierra",
        "design": "TargetDrone",
        "loc": {
          "x": 50000,
          "y": 20000,
          "z": 10000
        },
        "count": 4,
        "iff": 2,
        "navpts": [
          {
            "cmd": "vector",
            "loc": {
              "x": 20000,
              "y": 20000,
              "z": 10000
            },
            "speed": 300
          },
          {
            "cmd": "vector",
            "loc": {
              "x": 20000,
              "y": 0,
              "z": 10000
            },
            "speed": 300
          },
          {
            "cmd": "vector",
            "loc": {
              "x": 0,
              "y": -20000,
              "z": 10000
            },
            "speed": 300
          },
          {
            "cmd": "vector",
            "loc": {
              "x": -20000,
              "y": -15000,
              "z": 10000
            },
            "speed": 300
          }
        ]
      },
      {
        "name": "Building",
        "design": "Bldg00",
        "mission": "Misc",
        "intel": "Located",
        "count": 1,
        "iff": 1,
        "playable": false,
        "region": "Janek Station",
        "loc": {
          "x": -19000,
          "y": 28000,
          "z": 0
        },
        "head": -13
      },
      {
        "name": "Building",
        "design": "Bldg00",
        "mission": "Misc",
        "intel": "Located",
        "count": 1,
        "iff": 1,
        "playable": false,
        "region": "Janek Station",
        "loc": {
          "x": -21000,
          "y": 29000,
          "z": 0
        },
        "head": -13
      },
      {
        "name": "Office Block",
        "design": "Bldg01",
        "mission": "Misc",
        "intel": "Located",
        "count": 1,
        "iff": 1,
        "playable": false,
        "region": "Janek Station",
        "loc": {
          "x": -16000,
          "y": 32000,
          "z": 0
        },
        "head": -13
      },
      {
        "name": "Dome",
        "design": "Tank00",
        "mission": "Misc",
        "intel": "Located",
        "count": 1,
        "iff": 1,
        "playable": false,
        "region": "Janek Station",
        "loc": {
          "x": -19000,
          "y": 31000,
          "z": 0
        },
        "head": -13
      },
      {
        "name": "Office Block",
        "design": "Bldg01",
        "mission": "Misc",
        "intel": "Located",
        "count": 1,
        "iff": 1,
        "playable": false,
        "region": "Janek Station",
        "loc": {
          "x": -18000,
          "y": 30000,
          "z": 0
        },
        "head": -13
      },
      {
        "name": "Building",
        "design": "Fact03",
        "mission": "Misc",
        "intel": "Located",
        "count": 1,
        "iff": 1,
        "playable": false,
        "region": "Janek Station",
        "loc": {
          "x": -17000,
          "y": 29000,
          "z": 0
        },
        "head": -13
      },
      {
        "name": "Cooling Tower",
        "design": "Cool00",
        "mission": "Misc",
        "intel": "Located",
        "count": 4,
        "iff": 2,
        "playable": false,
        "region": "Janek Station",
        "loc": {
          "x": 70000,
          "y": -10000,
          "z": 0
        }
      }
    ],
    "events": [
      {
        "id": 101,
        "event": "Message",
        "trigger": "Destroyed",
        "trigger_ship": "Sierra 1"
      },
      {
        "id": 102,
        "event": "Message",
        "trigger": "Destroyed",
        "trigger_ship": "Sierra 2"
      },
      {
        "id": 103,
        "event": "Message",
        "trigger": "Destroyed",
        "trigger_ship": "Sierra 3"
      },
      {
        "id": 104,
        "event": "Message",
        "trigger": "Destroyed",
        "trigger_ship": "Sierra 4"
      },
      {
        "id": 200,
        "event": "Message",
        "time": 2,
        "sound": "Vox/Train/Train-03-01.ogg",
        "message": "Please wait"
      },
      {
        "id": 210,
        "event": "Message",
        "time": 20,
        "sound": "Vox/Train/Train-03-02.ogg",
        "message": "Taking off"
      },
      {
        "id": 220,
        "event": "Message",
        "time": 40,
        "sound": "Vox/Train/Train-03-03.ogg",
        "message": "Raise your langing gear"
      },
      {
        "id": 230,
        "event": "Message",
        "time": 65,
        "sound": "Vox/Train/Train-03-04.ogg",
        "message": "Engage autonav"
      },
      {
        "id": 240,
        "event": "Message",
        "message": "Disengage autonav",
        "sound": "Vox/Train/Train-03-05.ogg",
        "trigger": "Navpoint",
        "trigger_param": 2,
        "trigger_ship": "Alpha"
      },
      {
        "id": 250,
        "event": "Message",
        "sound": "Vox/Train/Train-03-06.ogg",
        "message": "Airborne combat skills",
        "trigger": "Event",
        "trigger_param": 240,
        "delay": 14
      },
      {
        "id": 260,
        "event": "Message",
        "sound": "Vox/Train/Train-03-07.ogg",
        "message": "Well done!",
        "trigger": "Event (ALL)",
        "trigger_param": "(101, 102, 103, 104)",
        "delay": 1
      },
      {
        "id": 270,
        "event": "Message",
        "sound": "Vox/Train/Train-03-08.ogg",
        "message": "Order your wingman to head for home",
        "trigger": "Navpoint",
        "trigger_param": 4,
        "trigger_ship": "Alpha"
      },
      {
        "id": 300,
        "event": "Message",
        "sound": "Vox/Train/Train-03-09.ogg",
        "message": "Return to base",
        "trigger": "Navpoint",
        "trigger_param": 5,
        "trigger_ship": "Alpha"
      },
      {
        "id": 310,
        "event": "Message",
        "time": 120,
        "sound": "Vox/Train/Train-03-10.ogg",
        "message": "Landing procedure",
        "trigger": "Range",
        "ship": "Alpha 1",
        "trigger_param": 15000,
        "trigger_ship": "Janek Station"
      },
      {
        "id": 311,
        "event": "Message",
        "time": 120,
        "sound": "Vox/Train/Train-03-11.ogg",
        "message": "Final approach",
        "ship": "Alpha 1",
        "trigger": "Range",
        "trigger_param": 10000,
        "trigger_ship": "Janek Station"
      }
    ]
  }
}