﻿{
  "title": "CombatRoster",
  "description": "A JSON schema for CombatRoster Serialization. Check your own json with the Online JSON Schema validator at https://www.jsonschemavalidator.net/",
  "properties": {
    "groups": {
      "type": "array",
      "items": {
        "type": "object",
        "description": "A CombatGroup",
        "properties": {
          "type": {
            "type": "string",
            "enum": [
              "force", // Commander In Chief

              "wing", // Air Force
              "intercept_squadron", // a2a fighter
              "fighter_squadron", // multi-role fighter
              "attack_squadron", // strike / attack
              "lca_squadron", // landing craft

              "fleet", // Navy
              "destroyer_squadron", // destroyer
              "battle_group", // heavy cruiser(s)
              "carrier_group", // fleet carrier

              "battalion", // Army
              "minefield",
              "battery",
              "missile",
              "station", // orbital station
              "starbase", // planet-side base

              "c3i", // Command, Control, Communications, Intelligence
              "comm_relay",
              "early_warning",
              "fwd_control_ctr",
              "ecm",

              "support",
              "courier",
              "medical",
              "supply",
              "repair",

              "civilian", // root for civilian groups

              "war_production",
              "factory",
              "refinery",
              "resource",

              "infrastructure",
              "transport",
              "network",
              "habitat",
              "STORAGE",

              "non_com", // other civilian traffic
              "freight",
              "passenger",
              "private"
            ]
          },
          "id": {
            "type": "integer"
          },
          "name": {
            "type": "string"
          },
          "intel": {
            "type": "string"
          },
          "iff": {
            "type": "integer"
          },
          "region": {
            "type": "string"
          },
          "loc": {
            "type": "object",
            "properties": {
              "x": {
                "type": "number"
              },
              "y": {
                "type": "number"
              }

            },
            "z": {
              "type": "number"
            }
          },
          "parent_type": {
            "type": "string"
          },
          "parent_id": {
            "type": "integer"
          },

          "units": {
            "type": "array",
            "items": {
              "type": "object",
              "properties": {
                "name": {
                  "type": "string"
                },
                "regnum": {
                  "type": "string"
                },
                "region": {
                  "type": "string"
                },
                "loc": {
                  "type": "object",
                  "properties": {
                    "x": {
                      "type": "number"
                    },
                    "y": {
                      "type": "number"
                    },
                    "z": {
                      "type": "number"
                    }
                  }
                },
                "type": {
                  "type": "string",
                  "enum": [
                    "Drone",
                    "Fighter",
                    "Attack",
                    "LCA",
                    "Courier",
                    "Cargo",
                    "Corvette",
                    "Freighter",

                    "Frigate",
                    "Destroyer",
                    "Cruiser",
                    "Battleship",
                    "Carrier",
                    "Dreadnaught",

                    "Station",
                    "Farcaster",

                    "Mine",
                    "DEFSAT",
                    "COMSAT",
                    "SWACS",

                    "Building",
                    "Factory",
                    "SAM",
                    "EWR",
                    "C3I",
                    "Starbase",

                    "0x04000000",
                    "0x08000000",
                    "0x10000000",
                    "0x20000000",
                    "0x40000000",
                    "0x80000000"
                  ]
                },
                "design": {
                  "type": "string"
                },
                "skin": {
                  "type": "string"
                },
                "count": {
                  "type": "integer"
                },
                "dead_count": {
                  "type": "integer"
                },
                "available": {
                  "type": "integer"
                },
                "damage": {
                  "type": "integer"
                },
                "heading": {
                  "type": "number"
                }
              }
            },
            "required": [
              "name",
              "type"
            ],
            "additionalProperties": false
          }
        },
        "required": [
          "name",
          "type",
          "id"
        ],
        "additionalProperties": false
      },
      "required": [
        "groups"
      ],
      "additionalProperties": false
    }
  }
}