{
  "SHIP": {
    "name": "Goliath",
    "display_name": "Goliath",
    "class": "Carrier",
    "description": "The GOLIATH class carrier vessels provide the Dantari Separatists with their main force projection capability in the Solus system.  Unlike the rest of the Dantari fleet, which consists largely of older Hegemony warships, the Goliath class carriers were designed and constructed specifically for their Dantari crew.  Due to budgetary constraints, the Goliath class is outfitted with only a single launch rail, but still has a full complement of point defense batteries for close-in protection.",
    "hud_icon": "GoliathHud.pcx",
    "detail_0": "Goliath_1opt.mag",
    "feature_0": "1000",
    "detail_1": "Goliath_2opt.mag",
    "feature_1": "48",
    "mass": "782e3",
    "agility": "1",
    "vlimit": "220",
    "roll_rate": "7",
    "integrity": "75e3",
    "scale": "5",
    "acs": "1.5",
    "trans_x": "1e6",
    "trans_y": "5e5",
    "trans_z": "1e6",
    "arcade_drag": "4.5e-2",
    "drag": "1e-7",
    "roll_drag": "1.2",
    "pitch_drag": "1.2",
    "yaw_drag": "1.2",
    "degrees": true,
    "chase": {
      "x": 0,
      "y": -1800,
      "z": 170
    },
    "bridge": {
      "x": 0,
      "y": 320,
      "z": 60
    },
    "power": [
      {
        "type": "Fusion",
        "design": "Fusion Reactor",
        "max_output": "50e3",
        "loc": {
          "x": 0,
          "y": 4,
          "z": -280
        },
        "size": "48",
        "hull_factor": "0.5",
        "explosion": "7"
      },
      {
        "type": "Auxilliary Reactor",
        "design": "Auxilliary Reactor",
        "max_output": "1100",
        "loc": {
          "x": 0,
          "y": 0,
          "z": -100
        },
        "hull_factor": "0.8"
      },
      {
        "type": "Battery",
        "design": "Battery",
        "max_output": "100"
      }
    ],
    "drive": {
      "type": "Yellow",
      "name": "Plasma Drive",
      "design": "Plasma Drive",
      "thrust": "25e3",
      "scale": "12",
      "port": [
        {
          "x": 54,
          "y": -84,
          "z": -489
        },
        {
          "x": -54,
          "y": -84,
          "z": -489
        },
        {
          "x": 0,
          "y": -57,
          "z": -527
        },
        {
          "x": 0,
          "y": -111,
          "z": -489
        }
      ],
      "loc": {
        "x": 0,
        "y": 0,
        "z": -450
      },
      "size": "50",
      "hull_factor": "0.3",
      "explosion": "7"
    },
    "thruster": {
      "design": "Thruster",
      "loc": {
        "x": 0,
        "y": 0,
        "z": 128
      },
      "size": "24",
      "hull_factor": "0.3"
    },
    "quantum": {
      "design": "Quantum Drive",
      "loc": {
        "x": 0,
        "y": 0,
        "z": 0
      },
      "size": "24",
      "hull_factor": "0.3",
      "countdown": "7.5"
    },
    "shield": {
      "type": "2",
      "design": "Grav Shield",
      "factor": "0.0125",
      "consumption": "6000",
      "bolt_hit_sound": "shield_hit4.wav",
      "beam_hit_sound": "shield_hit5.wav",
      "pcs": "100",
      "loc": {
        "x": 0,
        "y": 20,
        "z": -80
      },
      "size": "16",
      "hull_factor": "0.5"
    },
    "weapon": [
      {
        "type": "Orca Cannon",
        "design": "Bolt Weapon",
        "name": "PDB 1",
        "abrv": "PDB 1",
        "loc": {
          "x": 104,
          "y": -17,
          "z": 64
        },
        "muzzle": [
          {
            "x": 30,
            "y": 0,
            "z": 190
          },
          {
            "x": -30,
            "y": 0,
            "z": 190
          }
        ],
        "azimuth": "60",
        "aim_az_max": "90",
        "aim_az_min": "-60",
        "aim_az_rest": "-60",
        "size": "32",
        "hull_factor": "0.2"
      },
      {
        "type": "Orca Cannon",
        "design": "Bolt Weapon",
        "name": "PDB 2",
        "abrv": "PDB 2",
        "loc": {
          "x": -104,
          "y": -17,
          "z": 64
        },
        "muzzle": [
          {
            "x": 30,
            "y": 0,
            "z": 190
          },
          {
            "x": -30,
            "y": 0,
            "z": 190
          }
        ],
        "azimuth": "-60",
        "aim_az_max": "-90",
        "aim_az_min": "60",
        "aim_az_rest": "60",
        "size": "32",
        "hull_factor": "0.2"
      },
      {
        "type": "Orca Cannon",
        "design": "Bolt Weapon",
        "name": "PDB 3",
        "abrv": "PDB 3",
        "loc": {
          "x": 104,
          "y": -17,
          "z": -64
        },
        "muzzle": [
          {
            "x": 30,
            "y": 0,
            "z": 190
          },
          {
            "x": -30,
            "y": 0,
            "z": 190
          }
        ],
        "azimuth": "90",
        "aim_az_max": "75",
        "aim_az_min": "-75",
        "aim_az_rest": "90",
        "size": "32",
        "hull_factor": "0.2"
      },
      {
        "type": "Orca Cannon",
        "design": "Bolt Weapon",
        "name": "PDB 4",
        "abrv": "PDB 4",
        "loc": {
          "x": -104,
          "y": -17,
          "z": -64
        },
        "muzzle": [
          {
            "x": 30,
            "y": 0,
            "z": 190
          },
          {
            "x": -30,
            "y": 0,
            "z": 190
          }
        ],
        "azimuth": "-90",
        "aim_az_max": "-75",
        "aim_az_min": "75",
        "aim_az_rest": "-90",
        "size": "32",
        "hull_factor": "0.2"
      }
    ],
    "flightdeck": [
      {
        "name": "Deck 1",
        "abrv": "Deck 1",
        "design": "Flight Deck",
        "loc": {
          "x": 0,
          "y": -85,
          "z": 192
        },
        "cam": {
          "x": -20,
          "y": -85,
          "z": 192
        },
        "start": {
          "x": 0,
          "y": 6,
          "z": 523
        },
        "end": {
          "x": 0,
          "y": 200,
          "z": 2500
        },
        "spot": [
          {
            "loc": {
              "x": 51,
              "y": 6,
              "z": 468
            },
            "filter": 7
          },
          {
            "loc": {
              "x": -51,
              "y": 6,
              "z": 468
            },
            "filter": 7
          },
          {
            "loc": {
              "x": 0,
              "y": 6,
              "z": 160
            },
            "filter": 8
          }
        ],
        "launch": true,
        "max_ships": "2",
        "cycle_time": "15",
        "size": "28",
        "hull_factor": "0.5"
      },
      {
        "name": "Deck 2",
        "abrv": "Deck 2",
        "design": "Flight Deck",
        "loc": {
          "x": 0,
          "y": -82,
          "z": -92
        },
        "cam": {
          "x": -20,
          "y": -72,
          "z": -92
        },
        "start": {
          "x": -1000,
          "y": 6,
          "z": 361
        },
        "end": {
          "x": -60,
          "y": 6,
          "z": 361
        },
        "spot": {
          "x": -60,
          "y": 6,
          "z": 361
        },
        "azimuth": "90",
        "approach": [
          {
            "x": -1300,
            "y": 10,
            "z": 500
          },
          {
            "x": -1300,
            "y": 10,
            "z": 0
          },
          {
            "x": -1800,
            "y": 10,
            "z": 0
          },
          {
            "x": -1800,
            "y": 10,
            "z": 1000
          }
        ],
        "recovery": true,
        "max_ships": "1",
        "cycle_time": "15",
        "size": "40",
        "hull_factor": "0.5"
      },
      {
        "name": "Deck 3",
        "abrv": "Deck 3",
        "design": "Flight Deck",
        "loc": {
          "x": 0,
          "y": -82,
          "z": -92
        },
        "cam": {
          "x": 20,
          "y": -72,
          "z": -92
        },
        "start": {
          "x": 1000,
          "y": 6,
          "z": 361
        },
        "end": {
          "x": 60,
          "y": 6,
          "z": 361
        },
        "spot": {
          "x": 60,
          "y": 6,
          "z": 361
        },
        "azimuth": "-90",
        "approach": [
          {
            "x": 1300,
            "y": 10,
            "z": 500
          },
          {
            "x": 1300,
            "y": 10,
            "z": 0
          },
          {
            "x": 1800,
            "y": 10,
            "z": 0
          },
          {
            "x": 1800,
            "y": 10,
            "z": 1000
          }
        ],
        "recovery": true,
        "max_ships": "1",
        "cycle_time": "15",
        "size": "40",
        "hull_factor": "0.5"
      }
    ],
    "probe": {
      "type": "Sensor Drone",
      "design": "Probe",
      "abrv": "Probe",
      "muzzle": {
        "x": 0,
        "y": -80,
        "z": 0
      },
      "loc": {
        "x": 0,
        "y": -80,
        "z": 0
      },
      "size": "16",
      "hull_factor": "0.2"
    },
    "sensor": {
      "design": "Sensor",
      "pcs": "20",
      "active_efficiency": "1e6",
      "passive_efficiency": "10e3",
      "range": [
        "25e3",
        "50e3",
        "75e3",
        "100e3"
      ],
      "loc": {
        "x": 0,
        "y": -16,
        "z": 380
      },
      "size": "16",
      "hull_factor": "0.1"
    },
    "computer": [
      {
        "name": "Avionics Package",
        "abrv": "HUD",
        "type": "1",
        "design": "Computer",
        "loc": {
          "x": 20,
          "y": 16,
          "z": 80
        },
        "size": "16",
        "hull_factor": "0.5"
      },
      {
        "name": "Flight Computer",
        "abrv": "Flight",
        "type": "2",
        "design": "Computer",
        "loc": {
          "x": -20,
          "y": -16,
          "z": 80
        },
        "size": "16",
        "hull_factor": "0.2"
      }
    ],
    "nav": {
      "loc": {
        "x": 0,
        "y": 16,
        "z": 60
      },
      "design": "Computer",
      "size": "16",
      "hull_factor": "0.1"
    },
    "map": {
      "sprite": [
        "GoliathMap0.pcx",
        "GoliathMap1.pcx",
        "GoliathMap2.pcx",
        "GoliathMap3.pcx",
        "GoliathMap4.pcx",
        "GoliathMap5.pcx",
        "GoliathMap6.pcx",
        "GoliathMap7.pcx"
      ]
    },
    "death_spiral": {
      "time": "5",
      "explosion_type": [
        10,
        10,
        10,
        10
      ],
      "explosion_time": [
        "2",
        "1",
        "0.5",
        "0"
      ],
      "explosion_loc": [
        {
          "x": -50,
          "y": 50,
          "z": 0
        },
        {
          "x": 60,
          "y": 40,
          "z": 190
        },
        {
          "x": 0,
          "y": -48,
          "z": -180
        },
        {
          "x": 20,
          "y": 80,
          "z": -190
        }
      ],
      "final_type": [
        13,
        12
      ],
      "final_loc": [
        {
          "x": 0,
          "y": 0,
          "z": 0
        },
        {
          "x": 0,
          "y": 0,
          "z": 0
        }
      ],
      "debris": [
        "DebrisGoliath1.mag",
        "DebrisGoliath2.mag",
        "Debris0A.mag",
        "Debris0B.mag",
        "Debris0C.mag"
      ],
      "debris_loc": [
        {
          "x": 0,
          "y": 0,
          "z": 400
        },
        {
          "x": 0,
          "y": 0,
          "z": -290
        },
        {
          "x": 0,
          "y": 0,
          "z": -50
        },
        {
          "x": 0,
          "y": 0,
          "z": 60
        },
        {
          "x": 0,
          "y": 0,
          "z": 0
        }
      ],
      "debris_mass": [
        "91e3",
        "61e3",
        "22",
        "16",
        "11"
      ],
      "debris_count": [
        "1",
        "1",
        "15",
        "15",
        "10"
      ],
      "debris_life": [
        "600",
        "500",
        "25",
        "28",
        "32"
      ],
      "debris_fire": [
        {
          "x": 44,
          "y": -34,
          "z": 64
        },
        {
          "x": 34,
          "y": -44,
          "z": -30
        },
        {
          "x": 64,
          "y": 34,
          "z": 74
        },
        {
          "x": 64,
          "y": -32,
          "z": -70
        }
      ]
    }
  }
}