%YAML 1.1
%TAG !u! tag:unity3d.com,2011:
--- !u!21 &2100000
Material:
  serializedVersion: 6
  m_ObjectHideFlags: 0
  m_CorrespondingSourceObject: {fileID: 0}
  m_PrefabInstance: {fileID: 0}
  m_PrefabAsset: {fileID: 0}
  m_Name: Earth
  m_Shader: {fileID: 4800000, guid: b1fac95321091764e8f70867c2a349fd, type: 3}
  m_ShaderKeywords: 
  m_LightmapFlags: 4
  m_EnableInstancingVariants: 0
  m_DoubleSidedGI: 0
  m_CustomRenderQueue: -1
  stringTagMap: {}
  disabledShaderPasses: []
  m_SavedProperties:
    serializedVersion: 3
    m_TexEnvs:
    - _CloudAndNightTex:
        m_Texture: {fileID: 2800000, guid: fe291fffbbf2f834fb076ded04466eda, type: 3}
        m_Scale: {x: 1, y: 1}
        m_Offset: {x: 0, y: 0}
    - _DiffuseTex:
        m_Texture: {fileID: 2800000, guid: 521c473bd713eff468f556acaf453a9c, type: 3}
        m_Scale: {x: 1, y: 1}
        m_Offset: {x: 0, y: 0}
    - _MainTex:
        m_Texture: {fileID: 0}
        m_Scale: {x: 1, y: 1}
        m_Offset: {x: 0, y: 0}
    - _NormalAndSpecularTex:
        m_Texture: {fileID: 2800000, guid: 3070d0b18ee1303498b4a16fe6066ad0, type: 3}
        m_Scale: {x: 1, y: 1}
        m_Offset: {x: 0, y: 0}
    m_Floats:
    - _AtmosphereMultiply: 2.07
    - _AtmospherePow: 3.34
    - _SunsetIntensity: 0.7464286
    m_Colors:
    - _AtmosphereColor: {r: 0.6313726, g: 0.7411765, b: 1, a: 1}
    - _Color: {r: 1, g: 1, b: 1, a: 1}
    - _LightDir: {r: -1, g: 0, b: 0, a: 1}
    - _SkyColor: {r: 0.08235294, g: 0.18431373, b: 0.3529412, a: 1}
    - _SunsetColor: {r: 0.8980392, g: 0.4117647, b: 0.14509805, a: 1}
